{
    "flights":
    [
        {
            "id":1,
            "origin": "YUL",
            "destination": "YYZ",
            "date": 1,
            "capacity":20
        },
        {
            "id":2,
            "origin": "YUL",
            "destination": "YYC",
            "date": 1,
            "capacity":20
        },
        {
            "id":3,
            "origin": "YUL",
            "destination": "YVR",
            "date": 1,
            "capacity":20
        },
        {
            "id":4,
            "origin": "YUL",
            "destination": "YYZ",
            "date": 2,
            "capacity":20
        },
        {
            "id":5,
            "origin": "YUL",
            "destination": "YYC",
            "date": 2,
            "capacity":20
        },
        {
            "id":6,
            "origin": "YUL",
            "destination": "YVR",
            "date": 2,
            "capacity":20
        }
    ]
}